Modeling Tidyflows • tidyflow
…
tidyflow will execute this order of steps: data -> split training/testing -> apply the formula and model to the training data. With this final model we can use the predict_training function to automatically predict on the training data:

# Predict on testing
fit_m %>%
  predict_training()
#> # A tibble: 24 x 12
#>      mpg   cyl  disp    hp  drat    wt  qsec    vs    am  gear  carb .pred
#>    <dbl> <dbl> <dbl> <dbl> <dbl> <dbl> <dbl> <dbl> <dbl> <dbl> <dbl> <dbl>
#>  1  21       6  160    110  3.9   2.62  16.5     0     1     4     4  21.6
#>  2  21       6  160    110  3.9   2.88  17.0     0     1     4     4  21.3
#>  3  21.4     6  258    110  3.08  3.22  19.4     1     0     3     1  20.8
#>  4  18.7     8  360    175  3.15  3.44  17.0     0     0     3     2  18.5
#>  5  14.3     8  360    245  3.21  3.57  15.8     0     0     3     4  14.0
#>  6  22.8     4  141.    95  3.92  3.15  22.9     1     0     4     2  23.4
#>  7  17.8     6  168.   123  3.92  3.44  18.9     1     0     4     4  18.0
#>  8  16.4     8  276.   180  3.07  4.07  17.4     0     0     3     3  14.5
#>  9  17.3     8  276.   180  3.07  3.73  17.6     0     0     3     3  16.0
#> 10  15.2     8  276.   180  3.07  3.78  18       0     0     3     3  16.2
#> # … with 14 more rows
…
You can finalize the tidyflow with complete_tflow which will select the best tuning parameters and train the model on the entire training data. This final model can be used for predicting on the training data and on the testing data automatically:

# Fit best model on the entire training data
final_m <-
  fit_m %>%
  complete_tflow(metric = "rmse")

# Predict on train
final_m %>%
  predict_training()
#> # A tibble: 24 x 12
#>      mpg   cyl  disp    hp  drat    wt  qsec    vs    am  gear  carb .pred
#>    <dbl> <dbl> <dbl> <dbl> <dbl> <dbl> <dbl> <dbl> <dbl> <dbl> <dbl> <dbl>
#>  1  21       6  160    110  3.9   2.88  17.0     0     1     4     4  22.0
#>  2  21.4     6  258    110  3.08  3.22  19.4     1     0     3     1  21.1
#>  3  18.7     8  360    175  3.15  3.44  17.0     0     0     3     2  17.0
#>  4  18.1     6  225    105  2.76  3.46  20.2     1     0     3     1  20.4
#>  5  14.3     8  360    245  3.21  3.57  15.8     0     0     3     4  14.8
#>  6  24.4     4  147.    62  3.69  3.19  20       1     0     4     2  23.1
#>  7  22.8     4  141.    95  3.92  3.15  22.9     1     0     4     2  23.4
#>  8  17.8     6  168.   123  3.92  3.44  18.9     1     0     4     4  19.9
#>  9  16.4     8  276.   180  3.07  4.07  17.4     0     0     3     3  15.4
#> 10  17.3     8  276.   180  3.07  3.73  17.6     0     0     3     3  15.8
#> # … with 14 more rows
…
