…
# Fit model
fit_m <- fit(tflow)

# Predict on testing
fit_m %>%
  predict_training()
#> # A tibble: 24 x 12
#>      mpg   cyl  disp    hp  drat    wt  qsec    vs    am  gear  carb .pred
#>    <dbl> <dbl> <dbl> <dbl> <dbl> <dbl> <dbl> <dbl> <dbl> <dbl> <dbl> <dbl>
#>  1  21       6  160    110  3.9   2.62  16.5     0     1     4     4  22.0
#>  2  21       6  160    110  3.9   2.88  17.0     0     1     4     4  21.8
#>  3  22.8     4  108     93  3.85  2.32  18.6     1     1     4     1  27.7
#>  4  21.4     6  258    110  3.08  3.22  19.4     1     0     3     1  22.2
#>  5  24.4     4  147.    62  3.69  3.19  20       1     0     4     2  22.9
#>  6  22.8     4  141.    95  3.92  3.15  22.9     1     0     4     2  24.0
#>  7  19.2     6  168.   123  3.92  3.44  18.3     1     0     4     4  20.2
#>  8  16.4     8  276.   180  3.07  4.07  17.4     0     0     3     3  14.5
#>  9  15.2     8  276.   180  3.07  3.78  18       0     0     3     3  15.5
#> 10  10.4     8  472    205  2.93  5.25  18.0     0     0     3     4  12.2
#> # … with 14 more rows
```
…
# Fit best model on the entire training data
final_m <-
  fit_m %>%
  complete_tflow(metric = "rmse")

# Predict on train
final_m %>%
  predict_training()
#> # A tibble: 24 x 12
#>      mpg   cyl  disp    hp  drat    wt  qsec    vs    am  gear  carb .pred
#>    <dbl> <dbl> <dbl> <dbl> <dbl> <dbl> <dbl> <dbl> <dbl> <dbl> <dbl> <dbl>
#>  1  21       6  160    110  3.9   2.62  16.5     0     1     4     4  21.9
#>  2  21       6  160    110  3.9   2.88  17.0     0     1     4     4  21.9
#>  3  22.8     4  108     93  3.85  2.32  18.6     1     1     4     1  25.9
#>  4  21.4     6  258    110  3.08  3.22  19.4     1     0     3     1  20.7
#>  5  18.7     8  360    175  3.15  3.44  17.0     0     0     3     2  16.9
#>  6  18.1     6  225    105  2.76  3.46  20.2     1     0     3     1  20.3
#>  7  14.3     8  360    245  3.21  3.57  15.8     0     0     3     4  13.7
#>  8  19.2     6  168.   123  3.92  3.44  18.3     1     0     4     4  19.8
#>  9  17.3     8  276.   180  3.07  3.73  17.6     0     0     3     3  16.1
#> 10  15.2     8  276.   180  3.07  3.78  18       0     0     3     3  16.3
#> # … with 14 more rows
…
