Extract elements of a tidyflow — tidyflow-extractors • tidyflow
…
# The mold is returned from `hardhat::mold()`, and contains the
# predictors, outcomes, and information about the preprocessing
# for use on new data at `predict()` time.
pull_tflow_mold(fit_recipe_tflow)
#> $predictors
#> # A tibble: 24 x 2
#>      cyl  disp
#>    <dbl> <dbl>
#>  1     6  5.08
#>  2     4  4.68
#>  3     6  5.55
#>  4     8  5.89
#>  5     6  5.42
#>  6     4  4.95
#>  7     6  5.12
#>  8     6  5.12
#>  9     8  5.62
#> 10     8  5.62
#> # … with 14 more rows
#> 
#> $outcomes
#> # A tibble: 24 x 1
#>      mpg
#>    <dbl>
#>  1  21  
#>  2  22.8
#>  3  21.4
#>  4  18.7
#>  5  18.1
#>  6  22.8
#>  7  19.2
#>  8  17.8
#>  9  16.4
#> 10  17.3
#> # … with 14 more rows
…
