…
Call:
stats::lm(formula = formula, data = data)

Coefficients:
(Intercept)          cyl  `log(disp)`  
    62.4676      -0.4948      -7.4628  

> 
> # The mold is returned from `hardhat::mold()`, and contains the
> # predictors, outcomes, and information about the preprocessing
> # for use on new data at `predict()` time.
> pull_tflow_mold(fit_recipe_tflow)
$predictors
# A tibble: 24 x 2
     cyl  disp
   <dbl> <dbl>
 1     6  5.08
 2     6  5.08
 3     4  4.68
 4     8  5.89
 5     6  5.42
 6     4  4.99
 7     4  4.95
 8     6  5.12
 9     8  5.62
10     8  5.62
# … with 14 more rows

$outcomes
# A tibble: 24 x 1
     mpg
   <dbl>
 1  21  
 2  21  
 3  22.8
 4  18.7
 5  18.1
 6  24.4
 7  22.8
 8  19.2
 9  16.4
10  17.3
# … with 14 more rows
…
