An introduction to tidyflow • tidyflow
…
One of the advantages of tidyflow is that it was built to work well within the machine learning workflow. To use this model to predict on the training data, you only have to call predict_training:

final_model %>%
  predict_training()
#> # A tibble: 24 x 12
#>      mpg   cyl  disp    hp  drat    wt  qsec    vs    am  gear  carb .pred
#>    <dbl> <dbl> <dbl> <dbl> <dbl> <dbl> <dbl> <dbl> <dbl> <dbl> <dbl> <dbl>
#>  1  21       6  160    110  3.9   2.62  16.5     0     1     4     4  22.5
#>  2  21       6  160    110  3.9   2.88  17.0     0     1     4     4  22.1
#>  3  21.4     6  258    110  3.08  3.22  19.4     1     0     3     1  21.0
#>  4  18.7     8  360    175  3.15  3.44  17.0     0     0     3     2  17.8
#>  5  18.1     6  225    105  2.76  3.46  20.2     1     0     3     1  20.5
#>  6  14.3     8  360    245  3.21  3.57  15.8     0     0     3     4  15.5
#>  7  24.4     4  147.    62  3.69  3.19  20       1     0     4     2  22.9
#>  8  19.2     6  168.   123  3.92  3.44  18.3     1     0     4     4  19.5
#>  9  17.8     6  168.   123  3.92  3.44  18.9     1     0     4     4  19.6
#> 10  10.4     8  472    205  2.93  5.25  18.0     0     0     3     4  12.6
#> # … with 14 more rows
…
final_model <-
  tflow %>%
  fit() %>%
  complete_tflow(metric = "rmse")

final_model %>%
  predict_training()
#> # A tibble: 24 x 12
#>      mpg   cyl  disp    hp  drat    wt  qsec    vs    am  gear  carb .pred
#>    <dbl> <dbl> <dbl> <dbl> <dbl> <dbl> <dbl> <dbl> <dbl> <dbl> <dbl> <dbl>
#>  1  21       6  160    110  3.9   2.62  16.5     0     1     4     4  22.5
#>  2  21       6  160    110  3.9   2.88  17.0     0     1     4     4  22.1
#>  3  21.4     6  258    110  3.08  3.22  19.4     1     0     3     1  21.0
#>  4  18.7     8  360    175  3.15  3.44  17.0     0     0     3     2  17.8
#>  5  18.1     6  225    105  2.76  3.46  20.2     1     0     3     1  20.5
#>  6  14.3     8  360    245  3.21  3.57  15.8     0     0     3     4  15.5
#>  7  24.4     4  147.    62  3.69  3.19  20       1     0     4     2  22.9
#>  8  19.2     6  168.   123  3.92  3.44  18.3     1     0     4     4  19.5
#>  9  17.8     6  168.   123  3.92  3.44  18.9     1     0     4     4  19.6
#> 10  10.4     8  472    205  2.93  5.25  18.0     0     0     3     4  12.6
#> # … with 14 more rows
…
