Using recipes in tidyflow • tidyflow
…
Defining your preprocessing steps in the recipe has several advantages among which are that the tidyflow takes care of applying these preprocessing steps in the training/testing data automatically. You can automatically predict on the training data and expect the tidyflow to calculate the log of qsec automatically:

final_model %>%
  predict_training()
#> # A tibble: 24 x 12
#>      mpg   cyl  disp    hp  drat    wt  qsec    vs    am  gear  carb .pred
#>    <dbl> <dbl> <dbl> <dbl> <dbl> <dbl> <dbl> <dbl> <dbl> <dbl> <dbl> <dbl>
#>  1  21       6  160    110  3.9   2.62  16.5     0     1     4     4  22.4
#>  2  21       6  160    110  3.9   2.88  17.0     0     1     4     4  22.4
#>  3  21.4     6  258    110  3.08  3.22  19.4     1     0     3     1  20.9
#>  4  18.1     6  225    105  2.76  3.46  20.2     1     0     3     1  20.5
#>  5  14.3     8  360    245  3.21  3.57  15.8     0     0     3     4  13.6
#>  6  24.4     4  147.    62  3.69  3.19  20       1     0     4     2  22.0
#>  7  22.8     4  141.    95  3.92  3.15  22.9     1     0     4     2  24.6
#>  8  19.2     6  168.   123  3.92  3.44  18.3     1     0     4     4  19.3
#>  9  16.4     8  276.   180  3.07  4.07  17.4     0     0     3     3  15.0
#> 10  17.3     8  276.   180  3.07  3.73  17.6     0     0     3     3  16.1
#> # … with 14 more rows
…
The lowest error for both the \(RMSE\) and the \(R^2\) seems to be a model of degree = 2. We can specify this directly into complete_tflow or just allow complete_tflow to determine this for you:

# Manual approach
best_model <- final_model %>% complete_tflow(best_params = data.frame(degree = 2))

# Allow `complete_tflow` to determine this for you
best_model <- final_model %>% complete_tflow(metric = "rmse")

best_model %>%
  predict_training()
#> # A tibble: 24 x 12
#>      mpg   cyl  disp    hp  drat    wt  qsec    vs    am  gear  carb .pred
#>    <dbl> <dbl> <dbl> <dbl> <dbl> <dbl> <dbl> <dbl> <dbl> <dbl> <dbl> <dbl>
#>  1  21       6  160    110  3.9   2.62  16.5     0     1     4     4  21.0
#>  2  21       6  160    110  3.9   2.88  17.0     0     1     4     4  22.0
#>  3  21.4     6  258    110  3.08  3.22  19.4     1     0     3     1  20.6
#>  4  18.1     6  225    105  2.76  3.46  20.2     1     0     3     1  19.2
#>  5  14.3     8  360    245  3.21  3.57  15.8     0     0     3     4  12.8
#>  6  24.4     4  147.    62  3.69  3.19  20       1     0     4     2  23.2
#>  7  22.8     4  141.    95  3.92  3.15  22.9     1     0     4     2  23.1
#>  8  19.2     6  168.   123  3.92  3.44  18.3     1     0     4     4  19.4
#>  9  16.4     8  276.   180  3.07  4.07  17.4     0     0     3     3  14.4
#> 10  17.3     8  276.   180  3.07  3.73  17.6     0     0     3     3  16.8
#> # … with 14 more rows
…
